C:\Users\muhammad.azis\Documents\fix\src\test\java\com\qa\stepdef\login\LoginStep.java
C:\Users\muhammad.azis\Documents\fix\src\test\java\com\qa\runners\RunCukesTest.java
C:\Users\muhammad.azis\Documents\fix\src\test\java\com\qa\hooks\Hooks.java
C:\Users\muhammad.azis\Documents\fix\src\test\java\com\qa\stepdef\producer\ProducerStep.java
C:\Users\muhammad.azis\Documents\fix\src\test\java\com\qa\stepdef\onboarding\OnboardingStep.java
